<?xml version="1.0" encoding="UTF-8" standalone="no"?>
<!-- Generator: Adobe Illustrator 16.0.0, SVG Export Plug-In . SVG Version: 6.00 Build 0)  -->

<svg
   xmlns:dc="http://purl.org/dc/elements/1.1/"
   xmlns:cc="http://creativecommons.org/ns#"
   xmlns:rdf="http://www.w3.org/1999/02/22-rdf-syntax-ns#"
   xmlns:svg="http://www.w3.org/2000/svg"
   xmlns="http://www.w3.org/2000/svg"
   xmlns:sodipodi="http://sodipodi.sourceforge.net/DTD/sodipodi-0.dtd"
   xmlns:inkscape="http://www.inkscape.org/namespaces/inkscape"
   version="1.1"
   id="Capa_1"
   x="0px"
   y="0px"
   width="948.492px"
   height="948.492px"
   viewBox="0 0 948.492 948.492"
   style="enable-background:new 0 0 948.492 948.492;"
   xml:space="preserve"
   sodipodi:docname="anti_clockwise.svg"
   inkscape:version="0.92.3 (2405546, 2018-03-11)"><metadata
   id="metadata922"><rdf:RDF><cc:Work
       rdf:about=""><dc:format>image/svg+xml</dc:format><dc:type
         rdf:resource="http://purl.org/dc/dcmitype/StillImage" /><dc:title></dc:title></cc:Work></rdf:RDF></metadata><defs
   id="defs920" /><sodipodi:namedview
   pagecolor="#ffffff"
   bordercolor="#666666"
   borderopacity="1"
   objecttolerance="10"
   gridtolerance="10"
   guidetolerance="10"
   inkscape:pageopacity="0"
   inkscape:pageshadow="2"
   inkscape:window-width="1600"
   inkscape:window-height="822"
   id="namedview918"
   showgrid="false"
   inkscape:zoom="0.68635265"
   inkscape:cx="357.68784"
   inkscape:cy="474.246"
   inkscape:window-x="0"
   inkscape:window-y="0"
   inkscape:window-maximized="1"
   inkscape:current-layer="g885" />
<g
   id="g885">
	<path
   d="m 159.67882,6.364 c 27.908,7.865 44.156,36.865 36.291,64.772 l -22.875,81.167 c 0.273,-0.267 0.541,-0.541 0.814,-0.807 44.713,-43.515 98.953,-76.187 158.944,-95.463 16.58,-5.328 33.396,-9.558 50.354,-12.688 4.846,-0.895 9.703,-1.699 14.57,-2.414 2.433,-0.358 4.869,-0.693 7.307,-1.005 17.066,-2.188 34.238,-3.276 51.422,-3.263 36.825,0.028 73.713,5.115 109.766,15.275 0.007,0.002 0.013,0.004 0.02,0.006 51.242,14.443 98.311,38.294 139.897,70.892 22.82,17.887 26.819,50.887 8.932,73.707 -17.887,22.821 -50.886,26.819 -73.707,8.933 -30.759,-24.11 -65.623,-41.765 -103.624,-52.474 -56.978,-16.06 -116.736,-15.022 -172.815,2.998 -1.712,0.55 -3.416,1.114 -5.115,1.693 -44.158,15.057 -83.933,39.961 -116.523,72.822 -1.553,1.566 -3.085,3.157 -4.604,4.759 l 55.852,15.74 c 27.908,7.865 44.156,36.865 36.291,64.772 -6.522,23.147 -27.584,38.273 -50.504,38.272 -4.714,0 -9.508,-0.64 -14.269,-1.981 L 77.248819,298.854 c -13.402,-3.777 -24.754,-12.723 -31.561,-24.87 -6.807,-12.147 -8.508,-26.5 -4.73,-39.902 l 53.948,-191.427 C 102.77082,14.747 131.77182,-1.502 159.67882,6.364 Z"
   id="path879"
   style="fill:#ca1634;fill-opacity:1"
   inkscape:connector-curvature="0" />
	<path
   d="m 62.814819,329.368 c 28.729,3.915 48.845001,30.379 44.930001,59.107 -5.277,38.725 -2.91,77.731 7.036,115.94 1.397,5.371 2.938,10.688 4.618,15.943 16.233,50.814 45.479,96.086 85.238,131.705 37.805,33.867 83.166,57.464 132.176,68.933 l -14.618,-56.156 c -7.305,-28.06 9.521,-56.728 37.581,-64.032 28.06,-7.304 56.728,9.521 64.032,37.581 l 49.429,189.883 c 3.508,13.475 1.519,27.791 -5.529,39.799 -7.048,12.009 -18.577,20.726 -32.052,24.232 l -192.469,50.103 c -4.437,1.155 -8.883,1.706 -13.262,1.706 -23.323,0 -44.622,-15.663 -50.771,-39.287 -7.305,-28.061 9.521,-56.729 37.581,-64.032 l 81.607,-21.244 c -60.562,-16.553 -116.549,-46.976 -163.768,-89.278 -12.971,-11.62 -25.113,-23.998 -36.380001,-37.056 -40.237,-46.633 -69.302,-101.934 -85.028,-162.348 C -0.24818089,479.338 -3.4311809,426.66 3.7048191,374.298 c 3.917,-28.731 30.3769999,-48.845 59.1099999,-44.93 z"
   id="path881"
   style="fill:#ca1634;fill-opacity:1"
   inkscape:connector-curvature="0" />
	<path
   d="m 816.34582,398.233 c 5.331,24.379 8.403,49.166 9.163,74.074 0.438,14.344 0.113,28.727 -0.978,43.093 -0.364,4.789 -0.812,9.574 -1.347,14.357 -1.335,11.958 -3.204,23.892 -5.609,35.768 -15.8,78.026 -54.017,149.135 -110.52,205.637 -37.65,37.649 -81.47,67.059 -130.241,87.409 -6.608,2.757 -13.456,4.062 -20.195,4.062 -20.551,0 -40.065,-12.146 -48.473,-32.297 -11.165,-26.759 1.476,-57.503 28.234,-68.668 36.068,-15.05 68.513,-36.836 96.43,-64.753 41.858,-41.859 70.164,-94.5 81.854,-152.23 2.14,-10.569 3.708,-21.198 4.708,-31.846 0.333,-3.549 0.603,-7.101 0.81,-10.652 0.517,-8.879 0.64,-17.761 0.371,-26.622 -0.768,-25.278 -4.736,-50.384 -11.839,-74.765 l -38.559,39.023 c -20.379,20.625 -53.62,20.823 -74.245,0.444 -20.625,-20.379 -20.824,-53.619 -0.445,-74.245 l 129.914,-131.48 c 20.379,-20.625 53.62,-20.824 74.245,-0.445 l 133.271,131.686 c 20.625,20.379 20.824,53.62 0.445,74.245 -10.271,10.394 -23.805,15.6 -37.347,15.6 -13.33,0 -26.667,-5.046 -36.898,-15.155 z"
   id="path883"
   style="fill:#ca1634;fill-opacity:1"
   inkscape:connector-curvature="0" />
</g>
<g
   id="g887">
</g>
<g
   id="g889">
</g>
<g
   id="g891">
</g>
<g
   id="g893">
</g>
<g
   id="g895">
</g>
<g
   id="g897">
</g>
<g
   id="g899">
</g>
<g
   id="g901">
</g>
<g
   id="g903">
</g>
<g
   id="g905">
</g>
<g
   id="g907">
</g>
<g
   id="g909">
</g>
<g
   id="g911">
</g>
<g
   id="g913">
</g>
<g
   id="g915">
</g>
</svg>